15
-0.15419	-0.821436
-0.795166	-0.921753
0.90671		-0.59452
0.789034	-0.835026
-0.562623	-0.0781942
0.83065		0.773364
-0.257278	0.546765
0.504638	0.647848
0.851506	0.208072
0.117594	-0.132646
-0.928085	-0.671541
0.503628	-0.464033
-0.888293	0.822888
-0.0776889	0.858407
-0.928669	0.029923